"0","100","1772"
"1","1100","113"
"2","2100","133"
"3","3100","156"
"4","4100","184"
"5","5100","145"
"6","6100","164"
"7","7100","186"
"8","8100","267"
"9","9100","247"
"10","10100","286"
"11","11100","248"
"12","12100","244"
"13","13100","368"
"14","14100","299"
"15","15100","351"
"16","16100","354"
"17","17100","332"
"18","18100","338"
"19","19100","354"
"20","20100","403"
"21","21100","394"
"22","22100","412"
"23","23100","452"
"24","24100","439"
"25","25100","484"
"26","26100","7940"
"27","27100","495"
"28","28100","519"
"29","29100","558"
"30","30100","524"
"31","31100","582"
"32","32100","7840"
"33","33100","623"
"34","34100","681"
"35","35100","681"
"36","36100","687"
"37","37100","8130"
"38","38100","676"
"39","39100","718"
"40","40100","724"
"41","41100","8405"
"42","42100","818"
"43","43100","754"
"44","44100","784"
"45","45100","8167"
"46","46100","803"
"47","47100","816"
"48","48100","8927"
"49","49100","919"
"50","50100","885"
"51","51100","8731"
"52","52100","909"
"53","53100","986"
"54","54100","8636"
"55","55100","942"
"56","56100","982"
"57","57100","8552"
"58","58100","1017"
"59","59100","1034"
"60","60100","8568"
"61","61100","1086"
"62","62100","1137"
"63","63100","8397"
"64","64100","1133"
"65","65100","9442"
"66","66100","1184"
"67","67100","1158"
"68","68100","8176"
"69","69100","1182"
"70","70100","9327"
"71","71100","1232"
"72","72100","1253"
"73","73100","8046"
"74","74100","1274"
"75","75100","9830"
"76","76100","1294"
"77","77100","9248"
"78","78100","1394"
"79","79100","9143"
"80","80100","1360"
"81","81100","9230"
"82","82100","1433"
"83","83100","9037"
"84","84100","1478"
"85","85100","9126"
"86","86100","1464"
"87","87100","9055"
"88","88100","1516"
"89","89100","9075"
"90","90100","1613"
"91","91100","8881"
"92","92100","1547"
"93","93100","8985"
"94","94100","10492"
"95","95100","1580"
"96","96100","8978"
"97","97100","1689"
"98","98100","8795"
"99","99100","10561"
